PRADI Data Prep 2025
…
Pull the regenerated DD

dfDD <- read_excel("/Users/mengnazhang/Desktop/ADSP_DataPrep_local/PRADI/Phenotype/2025/Clean/colnamesPerSubdata.xlsx", sheet = "AAAD_MEDCON")

Handling Logical Variables

## extract all logical variables
logicols <- colnames(df)[sapply(df, is.logical)] ## 33 vars

## view those variables in the regeneraed DD
dfDD[dfDD$VarNames %in% logicols,c("VarNames","Data Type")]

## # A tibble: 33 × 2
##    VarNames    `Data Type`  
##    <chr>       <chr>        
##  1 REFCTR      VARCHAR2(6)  
##  2 REVIEW_DATE date         
##  3 REVIEWER    VARCHAR      
##  4 SEEN5_SPEC  VARCHAR2(100)
##  5 SEEN6_SPEC  VARCHAR2(100)
##  6 SEEN7_SPEC  VARCHAR2(100)
##  7 SEEN8_SPEC  VARCHAR2(100)
##  8 SEEN9_SPEC  VARCHAR2(100)
##  9 SEEN10_SPEC VARCHAR2(100)
## 10 SEEN11_SPEC VARCHAR2(100)
## # ℹ 23 more rows
…
Pull the regenerated DD

dfDD <- read_excel("/Users/mengnazhang/Desktop/ADSP_DataPrep_local/PRADI/Phenotype/2025/Clean/colnamesPerSubdata.xlsx", sheet = "AAAD_SOCIO_DEMO")

Handling Logical Variables

## extract all logical variables
logicols <- colnames(df)[sapply(df, is.logical)] ## 121

## view those variables in the regeneraed DD
dfDD[dfDD$VarNames %in% logicols,c("VarNames","Data Type")]

## # A tibble: 121 × 2
##    VarNames    `Data Type`  
##    <chr>       <chr>        
##  1 REFCTR      VARCHAR2(6)  
##  2 REVIEW_DATE date         
##  3 REVIEWER    VARCHAR      
##  4 SDF12       VARCHAR2(200)
##  5 SDF13       NUMBER(3)    
##  6 SDF14       CHAR(2)      
##  7 SDF15       CHAR(2)      
##  8 SDF16       CHAR(2)      
##  9 SDF17       NUMBER(2)    
## 10 SDF17A      CHAR(2)      
## # ℹ 111 more rows
…
